Categories:Multimedia
License:Apache-2.0
Author Name:Tibor Kaputa
Author Email:hello@simplemobiletools.com
Web Site:https://simplemobiletools.com
Source Code:https://github.com/SimpleMobileTools/Simple-Music-Player
Issue Tracker:https://github.com/SimpleMobileTools/Simple-Music-Player/issues
Changelog:https://github.com/SimpleMobileTools/Simple-Music-Player/blob/HEAD/CHANGELOG.md
Donate:https://simplemobiletools.com/donate
Bitcoin:19Hc8A7sWGud8sP19VXDC5a5j28UyJfpyJ
Litecoin:LYACbHTKaM9ZubKQGxJ4NRyVy1gHUuztRP

Auto Name:Music Player

Repo Type:git
Repo:https://github.com/SimpleMobileTools/Simple-Music-Player

Build:1.6,7
    commit=48abb7981a0273f583b495c44d11f11536afcc5d
    subdir=app
    gradle=yes

Build:1.8,8
    commit=1.8
    subdir=app
    gradle=yes

Build:1.9,9
    commit=1.9
    subdir=app
    gradle=yes

Build:1.10,10
    commit=1.10
    subdir=app
    gradle=yes

Build:1.11,11
    commit=1.11
    subdir=app
    gradle=yes

Build:1.12,12
    commit=1.12
    subdir=app
    gradle=yes

Build:1.14,14
    commit=1.14
    subdir=app
    gradle=yes

Build:1.15,15
    commit=1.15
    subdir=app
    gradle=yes

Build:1.16,16
    commit=1.16
    subdir=app
    gradle=yes

Build:1.17,17
    commit=1.17
    subdir=app
    gradle=yes

Build:1.18,18
    commit=1.18
    subdir=app
    gradle=yes

Build:1.19,19
    commit=1.19
    subdir=app
    gradle=yes

Build:1.20,20
    commit=1.20
    subdir=app
    gradle=yes

Build:1.22,22
    commit=1.22
    subdir=app
    gradle=yes

Build:1.23,23
    commit=1.23
    subdir=app
    gradle=yes

Build:1.24,24
    commit=1.24
    subdir=app
    gradle=yes

Build:2.0.0,25
    commit=2.0.0
    subdir=app
    gradle=yes

Build:2.0.1,26
    commit=2.0.1
    subdir=app
    gradle=yes

Build:2.0.2,27
    commit=2.0.2
    subdir=app
    gradle=yes

Build:2.1.0,28
    commit=2.1.0
    subdir=app
    gradle=yes

Build:2.2.0,29
    commit=2.2.0
    subdir=app
    gradle=yes

Build:2.2.1,30
    commit=2.2.1
    subdir=app
    gradle=yes

Build:2.2.2,31
    commit=2.2.2
    subdir=app
    gradle=yes

Build:2.3.0,32
    commit=2.3.0
    subdir=app
    gradle=yes

Build:3.0.0,33
    commit=3.0.0
    subdir=app
    gradle=yes

Build:3.0.1,34
    commit=3.0.1
    subdir=app
    gradle=yes

Build:3.1.0,35
    commit=3.1.0
    subdir=app
    gradle=yes

Build:3.1.1,36
    commit=3.1.1
    subdir=app
    gradle=yes

Build:3.2.0,37
    commit=3.2.0
    subdir=app
    gradle=yes

Build:3.2.1,38
    commit=3.2.1
    subdir=app
    gradle=yes

Build:3.2.2,39
    commit=3.2.2
    subdir=app
    gradle=yes

Build:3.2.3,40
    commit=3.2.3
    subdir=app
    gradle=yes

Build:3.2.5,42
    commit=3.2.5
    subdir=app
    gradle=yes

Build:4.0.1,44
    commit=4.0.1
    subdir=app
    gradle=yes

Build:4.1.0,45
    commit=4.1.0
    subdir=app
    gradle=yes

Build:4.1.1,46
    commit=4.1.1
    subdir=app
    gradle=yes

Build:4.2.0,47
    commit=4.2.0
    subdir=app
    gradle=yes

Build:4.3.0,48
    commit=4.3.0
    subdir=app
    gradle=yes

Build:4.3.1,49
    commit=4.3.1
    subdir=app
    gradle=yes

Build:5.0.0,50
    disable=MusicService.kt: (413, 36): Unresolved reference: media
    commit=5.0.0
    subdir=app
    gradle=yes

Build:5.0.1,51
    disable=MusicService.kt: (413, 36): Unresolved reference: media
    commit=5.0.1
    subdir=app
    gradle=yes

Build:5.0.2,52
    commit=5.0.2
    subdir=app
    gradle=yes

Build:5.0.3,53
    commit=5.0.3
    subdir=app
    gradle=yes

Build:5.1.0,54
    commit=5.1.0
    subdir=app
    gradle=yes

Build:5.1.1,55
    commit=5.1.1
    subdir=app
    gradle=yes
    prebuild=sed -i -e '/keystore/d' build.gradle

Build:5.1.2,56
    commit=5.1.2
    subdir=app
    gradle=yes
    prebuild=sed -i -e '/keystore/d' build.gradle

Build:5.1.3,57
    commit=5.1.3
    subdir=app
    gradle=yes
    prebuild=sed -i -e '/keystore/d' build.gradle

Build:5.2.0,58
    commit=5.2.0
    subdir=app
    gradle=yes
    prebuild=sed -i -e '/keystore/d' build.gradle

Build:5.2.1,59
    commit=5.2.1
    subdir=app
    gradle=yes
    prebuild=sed -i -e '/keystore/d' build.gradle

Auto Update Mode:Version %v
Update Check Mode:Tags
Current Version:5.2.1
Current Version Code:59
